Projeto 1 - Consumo de Energia Elétrica no Brasil
…
## Deixar no formato longo: Sigla | Ano | consumo_energia
df_long <- df %>%
  select(-c(Codigo, Estado)) %>%  # remove colunas que não são anos
  pivot_longer(
    cols = -Sigla, 
    names_to = "Ano", 
    values_to = "consumo_energia"
  ) %>%
  mutate(Ano = as.integer(Ano)) %>% 
  filter(!is.na(consumo_energia))
df_long

# A tibble: 1,676 × 3
   Sigla   Ano consumo_energia
   <chr> <int>           <dbl>
 1 AC     1961              17
 2 AC     1962              22
 3 AC     1963              22
 4 AC     1964              15
 5 AC     1965              15
 6 AC     1966              15
 7 AC     1967               2
 8 AC     1970             357
 9 AC     1971            1130
10 AC     1972            1574
# ℹ 1,666 more rows
…
